2014-11-27T11:01:29+08:00 INFO (6): set cookie
2014-11-27T11:01:29+08:00 INFO (6): return true
2014-11-27T11:35:59+08:00 INFO (6): set cookie
2014-11-27T11:35:59+08:00 INFO (6): return true
2014-11-27T11:41:50+08:00 INFO (6): set cookie
2014-11-27T11:41:50+08:00 INFO (6): return true
2014-11-27T11:46:16+08:00 INFO (6): set cookie
2014-11-27T11:46:16+08:00 INFO (6): return true
